<?xml version='1.0' encoding='UTF-8' ?>
<svg xmlns='http://www.w3.org/2000/svg' version='1.0' width='1280.0' height='720.0'>
<defs>
</defs>
<g fill='#ffffff'>
<rect x='0.0' y='0.0' width='1280.0' height='720.0' />
</g>
<g fill='#000000' stroke='#000000' stroke-width='1.0'>
<text stroke='none' x='640.0' y='45.0' font-size='25.0' text-anchor='middle'>octet +RTS -N -p -h (Mon Mar 30 19:37 2020)</text>
<text stroke='none' transform='translate(30.0,360.0) rotate(-90.0)' font-size='20.0' text-anchor='middle'>bytes</text>
<text stroke='none' x='510.0' y='690.0' font-size='20.0' text-anchor='middle'>seconds</text>
<line x1='60.0' x2='930.0' y1='630.0' y2='630.0' />
<text stroke='none' x='80.0' y='620.0' font-size='15.0' text-anchor='end'>0</text>
<line x1='60.0' x2='930.0' y1='588.111' y2='588.111' />
<text stroke='none' x='80.0' y='578.111' font-size='15.0' text-anchor='end'>10k</text>
<line x1='60.0' x2='930.0' y1='546.2219' y2='546.2219' />
<text stroke='none' x='80.0' y='536.2219' font-size='15.0' text-anchor='end'>20k</text>
<line x1='60.0' x2='930.0' y1='504.3329' y2='504.3329' />
<text stroke='none' x='80.0' y='494.3329' font-size='15.0' text-anchor='end'>30k</text>
<line x1='60.0' x2='930.0' y1='462.4438' y2='462.4438' />
<text stroke='none' x='80.0' y='452.4438' font-size='15.0' text-anchor='end'>40k</text>
<line x1='60.0' x2='930.0' y1='420.5548' y2='420.5548' />
<text stroke='none' x='80.0' y='410.5548' font-size='15.0' text-anchor='end'>50k</text>
<line x1='60.0' x2='930.0' y1='378.6658' y2='378.6658' />
<text stroke='none' x='80.0' y='368.6658' font-size='15.0' text-anchor='end'>60k</text>
<line x1='60.0' x2='930.0' y1='336.7767' y2='336.7767' />
<text stroke='none' x='80.0' y='326.7767' font-size='15.0' text-anchor='end'>70k</text>
<line x1='60.0' x2='930.0' y1='294.8877' y2='294.8877' />
<text stroke='none' x='80.0' y='284.8877' font-size='15.0' text-anchor='end'>80k</text>
<line x1='60.0' x2='930.0' y1='252.9986' y2='252.9986' />
<text stroke='none' x='80.0' y='242.9986' font-size='15.0' text-anchor='end'>90k</text>
<line x1='60.0' x2='930.0' y1='211.1096' y2='211.1096' />
<text stroke='none' x='80.0' y='201.1096' font-size='15.0' text-anchor='end'>100k</text>
<line x1='60.0' x2='930.0' y1='169.2206' y2='169.2206' />
<text stroke='none' x='80.0' y='159.2206' font-size='15.0' text-anchor='end'>110k</text>
<line x1='60.0' x2='930.0' y1='127.3315' y2='127.3315' />
<line x1='90.0' x2='90.0' y1='660.0' y2='90.0' />
<text stroke='none' x='100.0' y='650.0' font-size='15.0' text-anchor='start'>0</text>
<line x1='142.6203' x2='142.6203' y1='660.0' y2='90.0' />
<text stroke='none' x='152.6203' y='650.0' font-size='15.0' text-anchor='start'>0.2</text>
<line x1='195.2407' x2='195.2407' y1='660.0' y2='90.0' />
<text stroke='none' x='205.2407' y='650.0' font-size='15.0' text-anchor='start'>0.4</text>
<line x1='247.861' x2='247.861' y1='660.0' y2='90.0' />
<text stroke='none' x='257.861' y='650.0' font-size='15.0' text-anchor='start'>0.6</text>
<line x1='300.4813' x2='300.4813' y1='660.0' y2='90.0' />
<text stroke='none' x='310.4813' y='650.0' font-size='15.0' text-anchor='start'>0.8</text>
<line x1='353.1017' x2='353.1017' y1='660.0' y2='90.0' />
<text stroke='none' x='363.1017' y='650.0' font-size='15.0' text-anchor='start'>1</text>
<line x1='405.722' x2='405.722' y1='660.0' y2='90.0' />
<text stroke='none' x='415.722' y='650.0' font-size='15.0' text-anchor='start'>1.2</text>
<line x1='458.3424' x2='458.3424' y1='660.0' y2='90.0' />
<text stroke='none' x='468.3424' y='650.0' font-size='15.0' text-anchor='start'>1.4</text>
<line x1='510.9627' x2='510.9627' y1='660.0' y2='90.0' />
<text stroke='none' x='520.9627' y='650.0' font-size='15.0' text-anchor='start'>1.6</text>
<line x1='563.583' x2='563.583' y1='660.0' y2='90.0' />
<text stroke='none' x='573.583' y='650.0' font-size='15.0' text-anchor='start'>1.8</text>
<line x1='616.2034' x2='616.2034' y1='660.0' y2='90.0' />
<text stroke='none' x='626.2034' y='650.0' font-size='15.0' text-anchor='start'>2</text>
<line x1='668.8237' x2='668.8237' y1='660.0' y2='90.0' />
<text stroke='none' x='678.8237' y='650.0' font-size='15.0' text-anchor='start'>2.2</text>
<line x1='721.444' x2='721.444' y1='660.0' y2='90.0' />
<text stroke='none' x='731.444' y='650.0' font-size='15.0' text-anchor='start'>2.4</text>
<line x1='774.0644' x2='774.0644' y1='660.0' y2='90.0' />
<text stroke='none' x='784.0644' y='650.0' font-size='15.0' text-anchor='start'>2.6</text>
<line x1='826.6847' x2='826.6847' y1='660.0' y2='90.0' />
<text stroke='none' x='836.6847' y='650.0' font-size='15.0' text-anchor='start'>2.8</text>
<line x1='879.305' x2='879.305' y1='660.0' y2='90.0' />
<g fill-opacity='0.7'>
<g fill='#ffffff'>
<rect x='90.0' y='90.0' width='840.0' height='540.0' />
</g>
<g fill='#8429ad'>
<path d='M 90.0,630.0 L 189.7382,392.6399 L 220.3277,392.6399 L 251.1372,392.6399 L 284.8547,392.6399 L 315.9896,392.6399 L 351.6736,392.6399 L 382.2981,392.6399 L 415.3863,392.6399 L 445.8169,392.6399 L 477.4741,392.6399 L 512.2895,392.6399 L 545.9749,392.6399 L 581.64,392.6399 L 613.9728,392.6399 L 646.0872,392.6399 L 679.0344,392.6399 L 710.4135,392.6399 L 742.1175,392.6399 L 774.6371,392.6399 L 807.6738,392.6399 L 840.5891,392.6399 L 875.3927,392.6399 L 907.0018,392.6399 L 930.0,630.0 L 930.0,630.0 L 907.0018,90.0 L 875.3927,90.0 L 840.5891,90.0 L 807.6738,90.0 L 774.6371,90.0 L 742.1175,90.0 L 710.4135,90.0 L 679.0344,90.0 L 646.0872,90.0 L 613.9728,90.0 L 581.64,90.0 L 545.9749,90.0 L 512.2895,90.0 L 477.4741,90.0 L 445.8169,90.0 L 415.3863,90.0 L 382.2981,90.0 L 351.6736,90.0 L 315.9896,90.0 L 284.8547,90.0 L 251.1372,90.0 L 220.3277,90.0 L 189.7382,90.0 L 90.0,630.0 L 90.0,630.0 Z' /></g>
<g fill='#c8f948'>
<path d='M 90.0,630.0 L 189.7382,615.2215 L 220.3277,615.2215 L 251.1372,615.2215 L 284.8547,615.2215 L 315.9896,615.2215 L 351.6736,615.2215 L 382.2981,615.2215 L 415.3863,615.2215 L 445.8169,615.2215 L 477.4741,615.2215 L 512.2895,615.2215 L 545.9749,615.2215 L 581.64,615.2215 L 613.9728,615.2215 L 646.0872,615.2215 L 679.0344,615.2215 L 710.4135,615.2215 L 742.1175,615.2215 L 774.6371,615.2215 L 807.6738,615.2215 L 840.5891,615.2215 L 875.3927,615.2215 L 907.0018,615.2215 L 930.0,630.0 L 930.0,630.0 L 907.0018,392.6399 L 875.3927,392.6399 L 840.5891,392.6399 L 807.6738,392.6399 L 774.6371,392.6399 L 742.1175,392.6399 L 710.4135,392.6399 L 679.0344,392.6399 L 646.0872,392.6399 L 613.9728,392.6399 L 581.64,392.6399 L 545.9749,392.6399 L 512.2895,392.6399 L 477.4741,392.6399 L 445.8169,392.6399 L 415.3863,392.6399 L 382.2981,392.6399 L 351.6736,392.6399 L 315.9896,392.6399 L 284.8547,392.6399 L 251.1372,392.6399 L 220.3277,392.6399 L 189.7382,392.6399 L 90.0,630.0 L 90.0,630.0 Z' /></g>
<g fill='#35f31c'>
<path d='M 90.0,630.0 L 189.7382,619.8126 L 220.3277,619.8126 L 251.1372,619.8126 L 284.8547,619.8126 L 315.9896,619.8126 L 351.6736,619.8126 L 382.2981,619.8126 L 415.3863,619.8126 L 445.8169,619.8126 L 477.4741,619.8126 L 512.2895,619.8126 L 545.9749,619.8126 L 581.64,619.8126 L 613.9728,619.8126 L 646.0872,619.8126 L 679.0344,619.8126 L 710.4135,619.8126 L 742.1175,619.8126 L 774.6371,619.8126 L 807.6738,619.8126 L 840.5891,619.8126 L 875.3927,619.8126 L 907.0018,619.8126 L 930.0,630.0 L 930.0,630.0 L 907.0018,615.2215 L 875.3927,615.2215 L 840.5891,615.2215 L 807.6738,615.2215 L 774.6371,615.2215 L 742.1175,615.2215 L 710.4135,615.2215 L 679.0344,615.2215 L 646.0872,615.2215 L 613.9728,615.2215 L 581.64,615.2215 L 545.9749,615.2215 L 512.2895,615.2215 L 477.4741,615.2215 L 445.8169,615.2215 L 415.3863,615.2215 L 382.2981,615.2215 L 351.6736,615.2215 L 315.9896,615.2215 L 284.8547,615.2215 L 251.1372,615.2215 L 220.3277,615.2215 L 189.7382,615.2215 L 90.0,630.0 L 90.0,630.0 Z' /></g>
<g fill='#e3fd51'>
<path d='M 90.0,630.0 L 189.7382,622.7616 L 220.3277,622.7616 L 251.1372,622.7616 L 284.8547,622.7616 L 315.9896,622.7616 L 351.6736,622.7616 L 382.2981,622.7616 L 415.3863,622.7616 L 445.8169,622.7616 L 477.4741,622.7616 L 512.2895,622.7616 L 545.9749,622.7616 L 581.64,622.7616 L 613.9728,622.7616 L 646.0872,622.7616 L 679.0344,622.7616 L 710.4135,622.7616 L 742.1175,622.7616 L 774.6371,622.7616 L 807.6738,622.7616 L 840.5891,622.7616 L 875.3927,622.7616 L 907.0018,622.7616 L 930.0,630.0 L 930.0,630.0 L 907.0018,619.8126 L 875.3927,619.8126 L 840.5891,619.8126 L 807.6738,619.8126 L 774.6371,619.8126 L 742.1175,619.8126 L 710.4135,619.8126 L 679.0344,619.8126 L 646.0872,619.8126 L 613.9728,619.8126 L 581.64,619.8126 L 545.9749,619.8126 L 512.2895,619.8126 L 477.4741,619.8126 L 445.8169,619.8126 L 415.3863,619.8126 L 382.2981,619.8126 L 351.6736,619.8126 L 315.9896,619.8126 L 284.8547,619.8126 L 251.1372,619.8126 L 220.3277,619.8126 L 189.7382,619.8126 L 90.0,630.0 L 90.0,630.0 Z' /></g>
<g fill='#cbc541'>
<path d='M 90.0,630.0 L 189.7382,625.4425 L 220.3277,625.4425 L 251.1372,625.4425 L 284.8547,625.4425 L 315.9896,625.4425 L 351.6736,625.4425 L 382.2981,625.4425 L 415.3863,625.4425 L 445.8169,625.4425 L 477.4741,625.4425 L 512.2895,625.4425 L 545.9749,625.4425 L 581.64,625.4425 L 613.9728,625.4425 L 646.0872,625.4425 L 679.0344,625.4425 L 710.4135,625.4425 L 742.1175,625.4425 L 774.6371,625.4425 L 807.6738,625.4425 L 840.5891,625.4425 L 875.3927,625.4425 L 907.0018,625.4425 L 930.0,630.0 L 930.0,630.0 L 907.0018,622.7616 L 875.3927,622.7616 L 840.5891,622.7616 L 807.6738,622.7616 L 774.6371,622.7616 L 742.1175,622.7616 L 710.4135,622.7616 L 679.0344,622.7616 L 646.0872,622.7616 L 613.9728,622.7616 L 581.64,622.7616 L 545.9749,622.7616 L 512.2895,622.7616 L 477.4741,622.7616 L 445.8169,622.7616 L 415.3863,622.7616 L 382.2981,622.7616 L 351.6736,622.7616 L 315.9896,622.7616 L 284.8547,622.7616 L 251.1372,622.7616 L 220.3277,622.7616 L 189.7382,622.7616 L 90.0,630.0 L 90.0,630.0 Z' /></g>
<g fill='#bf3725'>
<path d='M 90.0,630.0 L 189.7382,630.0 L 220.3277,630.0 L 251.1372,630.0 L 284.8547,630.0 L 315.9896,630.0 L 351.6736,630.0 L 382.2981,630.0 L 415.3863,630.0 L 445.8169,630.0 L 477.4741,630.0 L 512.2895,630.0 L 545.9749,630.0 L 581.64,630.0 L 613.9728,630.0 L 646.0872,630.0 L 679.0344,630.0 L 710.4135,630.0 L 742.1175,630.0 L 774.6371,630.0 L 807.6738,630.0 L 840.5891,630.0 L 875.3927,630.0 L 907.0018,630.0 L 930.0,630.0 L 930.0,630.0 L 907.0018,625.4425 L 875.3927,625.4425 L 840.5891,625.4425 L 807.6738,625.4425 L 774.6371,625.4425 L 742.1175,625.4425 L 710.4135,625.4425 L 679.0344,625.4425 L 646.0872,625.4425 L 613.9728,625.4425 L 581.64,625.4425 L 545.9749,625.4425 L 512.2895,625.4425 L 477.4741,625.4425 L 445.8169,625.4425 L 415.3863,625.4425 L 382.2981,625.4425 L 351.6736,625.4425 L 315.9896,625.4425 L 284.8547,625.4425 L 251.1372,625.4425 L 220.3277,625.4425 L 189.7382,625.4425 L 90.0,630.0 L 90.0,630.0 Z' /></g>
<g fill='#8429ad'>
<rect x='990.0' y='93.375' width='27.0' height='27.0' />
</g>
<text stroke='none' x='1023.75' y='110.25' font-size='15.0' text-anchor='start'>MAIN</text>
<g fill='#c8f948'>
<rect x='990.0' y='127.125' width='27.0' height='27.0' />
</g>
<text stroke='none' x='1023.75' y='144.0' font-size='15.0' text-anchor='start'>(674)PINNED</text>
<g fill='#35f31c'>
<rect x='990.0' y='160.875' width='27.0' height='27.0' />
</g>
<text stroke='none' x='1023.75' y='177.75' font-size='15.0' text-anchor='start'>(772)GHC.IO.Encoding.CAF</text>
<g fill='#e3fd51'>
<rect x='990.0' y='194.625' width='27.0' height='27.0' />
</g>
<text stroke='none' x='1023.75' y='211.5' font-size='15.0' text-anchor='start'>(762)GHC.IO.Handle.FD.CAF</text>
<g fill='#cbc541'>
<rect x='990.0' y='228.375' width='27.0' height='27.0' />
</g>
<text stroke='none' x='1023.75' y='245.25' font-size='15.0' text-anchor='start'>(783)GHC.Conc.Signal.CAF</text>
<g fill='#bf3725'>
<rect x='990.0' y='262.125' width='27.0' height='27.0' />
</g>
<text stroke='none' x='1023.75' y='279.0' font-size='15.0' text-anchor='start'>(trace elements)</text>
</g>
</g>
</svg>
